{
    "KPlugin": {
        "Authors": [
            {
                "Email": "jgrulich@redhat.com",
                "Name": "Jan Grulich",
                "Name[ar]": "Jan Grulich",
                "Name[az]": "Jan Grulich",
                "Name[bg]": "Jan Grulich",
                "Name[ca@valencia]": "Jan Grulich",
                "Name[ca]": "Jan Grulich",
                "Name[cs]": "Jan Grulich",
                "Name[de]": "Jan Grulich",
                "Name[en_GB]": "Jan Grulich",
                "Name[eo]": "Jan Grulich",
                "Name[es]": "Jan Grulich",
                "Name[eu]": "Jan Grulich",
                "Name[fi]": "Jan Grulich",
                "Name[fr]": "Jan Grulich",
                "Name[gl]": "Jan Grulich",
                "Name[hu]": "Jan Grulich",
                "Name[ia]": "Jan Grulich",
                "Name[is]": "Jan Grulich",
                "Name[it]": "Jan Grulich",
                "Name[ka]": "Jan Grulich",
                "Name[ko]": "Jan Grulich",
                "Name[lt]": "Jan Grulich",
                "Name[nl]": "Jan Grulich",
                "Name[nn]": "Jan Gruhlich",
                "Name[pl]": "Jan Grulich",
                "Name[pt]": "Jan Grulich",
                "Name[pt_BR]": "Jan Grulich",
                "Name[ro]": "Jan Grulich",
                "Name[ru]": "Jan Grulich",
                "Name[sk]": "Jan Grulich",
                "Name[sl]": "Jan Grulich",
                "Name[sv]": "Jan Grulich",
                "Name[ta]": "ஜான் குரூலிச்",
                "Name[tr]": "Jan Grulich",
                "Name[uk]": "Jan Grulich",
                "Name[x-test]": "xxJan Grulichxx",
                "Name[zh_CN]": "Jan Grulich",
                "Name[zh_TW]": "Jan Grulich"
            }
        ],
        "Category": "VPNService",
        "Description": "Compatible with the SSH server",
        "Description[ar]": "متوافق مع خادوم SSH",
        "Description[az]": "SSH serveri ilə uyğun",
        "Description[bg]": "Съвместим със SSH сървър",
        "Description[ca@valencia]": "Compatible amb el servidor SSH",
        "Description[ca]": "Compatible amb el servidor SSH",
        "Description[cs]": "Kompatibilní se serverem SSH",
        "Description[de]": "Mit dem SSH-Server kompatibel",
        "Description[en_GB]": "Compatible with the SSH server",
        "Description[eo]": "Kongrua kun la SSH-servilo",
        "Description[es]": "Compatible con el servidor SSH",
        "Description[eu]": "SSH zerbitzariarekin bateragarria",
        "Description[fi]": "Yhteensopiva SSH-palvelimen kanssa",
        "Description[fr]": "Compatible avec le serveur « SSH »",
        "Description[gl]": "Compatíbel con servidores de SSH.",
        "Description[hu]": "Kompatibilis az SSH kiszolgálókkal",
        "Description[ia]": "Compatibile con le servitor SSH",
        "Description[is]": "Samhæft við SSH netþjón",
        "Description[it]": "Compatibile con il server SSH",
        "Description[ka]": "SSH სერვერთან თავსებადი",
        "Description[ko]": "SSH 서버와 호환됨",
        "Description[lt]": "Suderinamas su SSH serveriu",
        "Description[nl]": "Compatibel met de SSH-server",
        "Description[nn]": "Kompatibel med SSH-tenaren",
        "Description[pl]": "Zgodny z serwerem SSH",
        "Description[pt]": "Compatível com o servidor SSH",
        "Description[pt_BR]": "Compatível com o servidor SSH",
        "Description[ro]": "Compatibil cu serverul SSH",
        "Description[ru]": "Совместимая с сервером SSH",
        "Description[sk]": "Kompatibilné so serverom SSH",
        "Description[sl]": "Združljiv s strežnikom SSH",
        "Description[sv]": "Kompatibel med SSH-server",
        "Description[ta]": "SSH சேவையகத்துடன் ஒத்தியங்கக்கூடியது",
        "Description[tr]": "SSH sunucusuyla uyumlu",
        "Description[uk]": "Сумісний з сервером SSH",
        "Description[x-test]": "xxCompatible with the SSH serverxx",
        "Description[zh_CN]": "兼容 SSH 服务器",
        "Description[zh_TW]": "與 SSH 伺服器相容",
        "EnabledByDefault": false,
        "Icon": "",
        "Id": "plasmanetworkmanagement_sshui",
        "License": "GPL",
        "Name": "SSH",
        "Name[ar]": "اس اس اتش",
        "Name[ast]": "SSH",
        "Name[az]": "SSH",
        "Name[bg]": "SSH",
        "Name[ca@valencia]": "SSH",
        "Name[ca]": "SSH",
        "Name[cs]": "SSH",
        "Name[da]": "SSH",
        "Name[de]": "SSH",
        "Name[el]": "SSH",
        "Name[en_GB]": "SSH",
        "Name[eo]": "SSH",
        "Name[es]": "SSH",
        "Name[et]": "SSH",
        "Name[eu]": "SSH",
        "Name[fi]": "SSH",
        "Name[fr]": "SSH",
        "Name[gl]": "SSH",
        "Name[he]": "SSH",
        "Name[hsb]": "SSH",
        "Name[hu]": "SSH",
        "Name[ia]": "SSH",
        "Name[id]": "SSH",
        "Name[is]": "SSH",
        "Name[it]": "SSH",
        "Name[ja]": "SSH",
        "Name[ka]": "SSH",
        "Name[ko]": "SSH",
        "Name[lt]": "SSH",
        "Name[nb]": "SSH",
        "Name[nl]": "SSH",
        "Name[nn]": "SSH",
        "Name[pa]": "SSH",
        "Name[pl]": "SSH",
        "Name[pt]": "SSH",
        "Name[pt_BR]": "SSH",
        "Name[ro]": "SSH",
        "Name[ru]": "SSH",
        "Name[sk]": "SSH",
        "Name[sl]": "SSH",
        "Name[sr@ijekavian]": "ССХ",
        "Name[sr@ijekavianlatin]": "SSH",
        "Name[sr@latin]": "SSH",
        "Name[sr]": "ССХ",
        "Name[sv]": "SSH",
        "Name[ta]": "SSH",
        "Name[tg]": "SSH",
        "Name[tr]": "SSH",
        "Name[uk]": "SSH",
        "Name[x-test]": "xxSSHxx",
        "Name[zh_CN]": "SSH",
        "Name[zh_TW]": "SSH",
        "Version": "0.1",
        "Website": ""
    },
    "X-NetworkManager-Services": "org.freedesktop.NetworkManager.ssh"
}
